@startuml
object AcceptorReconciliationResponse5 {
Environment [1...1] : CardPaymentEnvironment69
TransactionResponse [1...1] : ResponseType5
Transaction [1...1] : TransactionReconciliation4
}
@enduml 