@startuml
object AcceptorAuthorisationResponse7 {
Environment [1...1] : CardPaymentEnvironment69
Transaction [1...1] : CardPaymentTransaction77
TransactionResponse [1...1] : CardPaymentTransaction84
SupplementaryData [0...*] : SupplementaryData1
}
@enduml 