@startuml
object AuthorisationResult11 {
AuthorisationEntity [0...1] : GenericIdentification90
ResponseToAuthorisation [1...1] : ResponseType5
AuthorisationCode [0...1] : Min6Max8Text
}
@enduml 