@startuml
object AuthenticatedData5 { 
Version [0...1] : Number
Recipient [1...*] : Recipient6Choice
MACAlgorithm [1...1] : AlgorithmIdentification22
EncapsulatedContent [1...1] : EncapsulatedContent3
MAC [1...1] : Max140Binary
}
@enduml