@startuml
object CardPaymentTransaction80 {
TransactionCapture [1...1] : TrueFalseIndicator
TransactionType [0...1] : CardPaymentServiceType12Code
AdditionalService [0...*] : CardPaymentServiceType9Code
ServiceAttribute [0...1] : CardPaymentServiceType3Code
MerchantCategoryCode [0...1] : Min3Max4Text
CustomerConsent [0...*] : TrueFalseIndicator
CardProgrammeProposed [0...*] : Max35Text
CardProgrammeApplied [0...*] : Max35Text
SaleReferenceIdentification [0...1] : Max35Text
TransactionIdentification [1...1] : TransactionIdentifier1
OriginalTransaction [0...1] : CardPaymentTransaction79
InitiatorTransactionIdentification [0...1] : Max35Text
ReconciliationIdentification [0...1] : Max35Text
TransactionDetails [1...1] : CardPaymentTransactionDetails45
MerchantReferenceData [0...1] : Max70Text
AccountFrom [0...1] : CardAccount14
AccountTo [0...1] : CardAccount14
AdditionalTransactionData [0...*] : Max70Text
}
@enduml 