@startuml
object CardPaymentDataSet20 {
TransactionSequenceCounter [1...1] : Max9NumericText
TransactionResponse [1...1] : ResponseType1
Environment [1...1] : CardPaymentEnvironment69
Transaction [1...1] : CardPaymentTransactionAdviceResponse5
}
@enduml 