@startuml
object CardPaymentTransactionDetails45 { 
Currency [0...1] : ActiveCurrencyCode
TotalAmount [1...1] : ImpliedCurrencyAndAmount
AmountQualifier [0...1] : TypeOfAmount8Code
DetailedAmount [0...1] : DetailedAmount15
ValidityDate [0...1] : ISODate
OnLineReason [0...*] : OnLineReason1Code
UnattendedLevelCategory [0...1] : Max35NumericText
AccountType [0...1] : CardAccountType3Code
CurrencyConversionResult [0...1] : CurrencyConversion15
Instalment [0...1] : RecurringTransaction2
AggregationTransaction [0...1] : AggregationTransaction2
ProductCodeSetIdentification [0...1] : Max10Text
SaleItem [0...*] : Product3
DeliveryLocation [0...1] : Max10Text
CardPaymentInvoice [0...1] : CardPaymentInvoice3
ICCRelatedData [0...1] : Max10000Binary
}
@enduml 