@startuml
object CardPaymentTransaction86 {
SaleReferenceIdentification [0...1] : Max35Text
TransactionIdentification [1...1] : TransactionIdentifier1
POIIdentification [1...1] : GenericIdentification32
CurrencyConversion [1...1] : CurrencyConversion16
}
@enduml 