@startuml
object CardPaymentEnvironment71 {
Acquirer [1...1] : Acquirer4
AcquirerAvailabilityRequested [0...1] : TrueFalseIndicator
MerchantIdentification [0...1] : GenericIdentification53
POIIdentification [0...1] : GenericIdentification32
POIComponent [0...*] : PointOfInteractionComponent8
AcquirerAvailable [0...1] : TrueFalseIndicator
}
@enduml 