@startuml
object CardPaymentDataSet21 {
DataSetIdentification [1...1] : DataSetIdentification5
DataSetResult [1...1] : ResponseType5
RemoveDataSet [1...1] : TrueFalseIndicator
DataSetInitiator [0...1] : GenericIdentification53
TransactionTotals [1...*] : TransactionTotals7
RejectedTransaction [0...*] : CardPaymentDataSet20
}
@enduml 