@startuml
object CardPaymentToken4 {
Token [0...1] : Min8Max28NumericText
CardSequenceNumber [0...1] : Min2Max3NumericText
TokenExpiryDate [0...1] : Max10Text
TokenCharacteristic [0...*] : Max35Text
TokenRequestor [0...1] : PaymentTokenIdentifiers1
TokenAssuranceLevel [0...1] : Number
TokenAssuranceData [0...1] : Max500Binary
}
@enduml 