@startuml
object ContentInformationType19 { 
ContentType [1...1] : ContentType2Code
EnvelopedData [0...1] : EnvelopedData5
AuthenticatedData [0...1] : AuthenticatedData5
SignedData [0...1] : SignedData5
DigestedData [0...1] : DigestedData5
}
@enduml 