@startuml
object CurrencyConversion14 { 
CurrencyConversionIdentification [0...1] : Max35Text
TargetCurrency [1...1] : CurrencyDetails3
ResultingAmount [1...1] : ImpliedCurrencyAndAmount
ExchangeRate [1...1] : PercentageRate
InvertedExchangeRate [0...1] : PercentageRate
QuotationDate [0...1] : ISODateTime
ValidUntil [0...1] : ISODateTime
SourceCurrency [1...1] : CurrencyDetails2
OriginalAmount [1...1] : OriginalAmountDetails1
CommissionDetails [0...*] : Commission19
MarkUpDetails [0...*] : Commission18
DeclarationDetails [0...1] : ActionMessage5
}
@enduml 