@startuml
object DetailedAmount14 { 
Amount [1...1] : ImpliedCurrencyAndAmount
DateTime [1...1] : ISODateTime
CardDataEntryMode [0...1] : CardDataReading5Code
ICCRelatedData [0...1] : Max10000Binary
Label [0...1] : Max140Text
}
@enduml 