@startuml
skinparam classBackgroundColor<<Codeset>> Azure 
enum Algorithm19Code <<Codeset>> {
ERS2 : SHA256WithRSA
ERS1 : SHA1WithRSA
RPSS : RSASSA-PSS
ECC1 : EllipticCryptographicCurveFirstAlgorithm
ECC2 : EllipticCryptographicCurveSecondAlgorithm
ECC3 : EllipticCryptographicCurveThirdAlgorithm
ECC4 : EllipticCryptographicCurveFourthAlgorithm
ECC5 : EllipticCryptographicCurveFifthAlgortihm
ERS3 : SHA3-256WithRSA
ECP2 : SignatureWithEllipticCurveP-256
ECP3 : SignatureWithEllipticCurveP-384
ECP5 : SignatureWithEllipticCurveP-512
}
@enduml 