@startuml
skinparam classBackgroundColor<<Codeset>> Azure 
enum MessageFunction14Code <<Codeset>> {
AUTQ : AuthorisationRequest
AUTP : AuthorisationResponse
FAUQ : FinancialAuthorisationRequest
FAUP : FinancialAuthorisationResponse
CMPV : CompletionAdvice
CMPK : CompletionAdviceResponse
FCMV : FinancialCompletionAdvice
FCMK : FinancialCompletionAdviceResponse
RVRA : ReversalAdvice
RVRR : ReversalAdviceResponse
FRVA : FinancialReversalAdvice
FRVR : FinancialReversalAdviceResponse
CCAQ : CancellationRequest
CCAP : CancellationResponse
CCAV : CancellationAdvice
CCAK : CancellationAdviceResponse
DGNP : DiagnosticRequest
DGNQ : DiagnosticResponse
RCLQ : ReconciliationRequest
RCLP : ReconciliationResponse
DCCQ : CurrencyConversionRequest
DCCP : CurrencyConversionResponse
DCAV : CurrencyConversionAdvice
DCRR : CurrencyConversionAdviceResponse
CDDR : CardDebitRequest
CDDP : CardDebitResponse
CDDQ : CardDebitAdvice
CDDK : CardDebitAdviceResponse
}
@enduml 