@startuml
skinparam classBackgroundColor<<Codeset>> Azure 
enum AccountChoiceMethod1Code <<Codeset>> {
ACSL : AccountSelected
ENTR : Entered
IMAC : ImplicitAccount
IMPL : ImplicitType
TPSL : TypeSelected
NOSL : NoSelection
}
@enduml 