@startuml
skinparam classBackgroundColor<<Codeset>> Azure 
enum FailureReason3Code <<Codeset>> {
CUCL : CustomerCancel
MALF : Malfunction
PART : Partial
LATE : TooLateResponse
UCMP : UnableToComplete
USND : UnableToSend
TIMO : TimeOut
CDCL : CardDeclined
NDCL : OnLineDeclined
FDCL : OfflineDeclined
SFRD : SuspectedFraud
SECU : SecurityError
}
@enduml 