@startuml
skinparam classBackgroundColor<<Codeset>> Azure 
enum PartyType7Code <<Codeset>> {
SALE : SaleSystem
PCPT : POIComponent
ACQR : Acquirer
ITAG : IntermediaryAgent
TMGT : TerminalManager
}
@enduml 