@startuml
skinparam classBackgroundColor<<Codeset>> Azure 
enum AuthenticationMethod6Code <<Codeset>> {
NPIN : OnLinePIN
FPIN : OfflinePIN
CPSG : SignatureCapture
PPSG : PaperSignature
MANU : ManualVerification
SCRT : SecureCertificate
SNCT : SecureNoCertificate
SCNL : SecuredChannel
PSWD : Password
ADDB : BillingAddressVerification
BIOM : Biometry
CDHI : CardholderIdentificationData
CRYP : CryptogramVerification
CSCV : CSCVerification
PSVE : PassiveAuthentication
CSEC : SecureElectronicCommerce
ADDS : ShippingAddressVerification
TOKP : PaymentToken
}
@enduml 