@startuml
object GenericIdentification53 {
Identification [1...1] : Max35Text
Type [0...1] : PartyType3Code
Issuer [0...1] : PartyType4Code
Country [0...1] : Min2Max3AlphaText
ShortName [0...1] : Max35Text
}
@enduml 