@startuml
object KEKIdentifier2 {
KeyIdentification [1...1] : Max140Text
KeyVersion [1...1] : Max140Text
SequenceNumber [0...1] : Number
DerivationIdentification [0...1] : Min5Max16Binary
}
@enduml 