@startuml
object KeyTransport5 {
Version [0...1] : Number
RecipientIdentification [1...1] : Recipient5Choice
KeyEncryptionAlgorithm [1...1] : AlgorithmIdentification19
EncryptedKey [1...1] : Max5000Binary
}
@enduml 