@startuml
object LineItemTax1 {
CalculatedAmount [0...*] : CurrencyAndAmount
TypeCode [0...1] : TaxTypeFormat1Choice
TaxPointDate [0...1] : ISODate
CalculatedRate [0...1] : PercentageRate
CategoryCode [0...1] : Max4Text
CategoryName [0...*] : Max35Text
}
@enduml 