@startuml
TITLE Acceptor Completion Advice Response V07\n %date% 
!include AccptrCmpltnAdvcRspn07.pu
!include Header36.pu
!include GenericIdentification53.pu
!include GenericIdentification94.pu
!include NetworkParameters5.pu
!include NetworkParameters4.pu
!include Traceability5.pu
!include GenericIdentification76.pu
!include AcceptorCompletionAdviceResponse7.pu
!include CardPaymentEnvironment69.pu
!include GenericIdentification53.pu
!include GenericIdentification32.pu
!include GenericIdentification32.pu
!include PaymentCard28.pu
!include ContentInformationType17.pu
!include EnvelopedData5.pu
!include OriginatorInformation1.pu
!include Recipient6Choice.pu
!include KeyTransport5.pu
!include Recipient5Choice.pu
!include IssuerAndSerialNumber1.pu
!include CertificateIssuer1.pu
!include RelativeDistinguishedName1.pu
!include KEKIdentifier2.pu
!include AlgorithmIdentification19.pu
!include Parameter10.pu
!include AlgorithmIdentification18.pu
!include Parameter9.pu
!include KEK5.pu
!include KEKIdentifier2.pu
!include AlgorithmIdentification23.pu
!include Parameter12.pu
!include KEKIdentifier2.pu
!include EncryptedContent4.pu
!include AlgorithmIdentification24.pu
!include Parameter12.pu
!include PlainCardData15.pu
!include CardPaymentToken4.pu
!include PaymentTokenIdentifiers1.pu
!include CardPaymentTransactionAdviceResponse6.pu
!include TransactionIdentifier1.pu
!include TMSTrigger1.pu
!include SupplementaryData1.pu
!include ContentInformationType16.pu
!include AuthenticatedData5.pu
!include Recipient6Choice.pu
!include KeyTransport5.pu
!include Recipient5Choice.pu
!include IssuerAndSerialNumber1.pu
!include CertificateIssuer1.pu
!include RelativeDistinguishedName1.pu
!include KEKIdentifier2.pu
!include AlgorithmIdentification19.pu
!include Parameter10.pu
!include AlgorithmIdentification18.pu
!include Parameter9.pu
!include KEK5.pu
!include KEKIdentifier2.pu
!include AlgorithmIdentification23.pu
!include Parameter12.pu
!include KEKIdentifier2.pu
!include AlgorithmIdentification22.pu
!include Parameter7.pu
!include EncapsulatedContent3.pu

AccptrCmpltnAdvcRspn07-->Header36 
Header36-->GenericIdentification53 
Header36-->GenericIdentification94 
GenericIdentification94-->NetworkParameters5 
NetworkParameters5-->NetworkParameters4 
Header36-->Traceability5 
Traceability5-->GenericIdentification76 
AccptrCmpltnAdvcRspn07-->AcceptorCompletionAdviceResponse7 
AcceptorCompletionAdviceResponse7-->CardPaymentEnvironment69 
CardPaymentEnvironment69-->GenericIdentification53 
CardPaymentEnvironment69-->GenericIdentification32 
CardPaymentEnvironment69-->PaymentCard28 
PaymentCard28-->ContentInformationType17 
ContentInformationType17-->EnvelopedData5 
EnvelopedData5-->OriginatorInformation1 
EnvelopedData5-->Recipient6Choice 
Recipient6Choice-->KeyTransport5 
KeyTransport5-->Recipient5Choice 
Recipient5Choice-->IssuerAndSerialNumber1 
IssuerAndSerialNumber1-->CertificateIssuer1 
CertificateIssuer1-->RelativeDistinguishedName1 
Recipient5Choice-->KEKIdentifier2 
KeyTransport5-->AlgorithmIdentification19 
AlgorithmIdentification19-->Parameter10 
Parameter10-->AlgorithmIdentification18 
AlgorithmIdentification18-->Parameter9 
Recipient6Choice-->KEK5 
KEK5-->KEKIdentifier2 
KEK5-->AlgorithmIdentification23 
AlgorithmIdentification23-->Parameter12 
Recipient6Choice-->KEKIdentifier2 
EnvelopedData5-->EncryptedContent4 
EncryptedContent4-->AlgorithmIdentification24 
AlgorithmIdentification24-->Parameter12 
PaymentCard28-->PlainCardData15 
CardPaymentEnvironment69-->CardPaymentToken4 
CardPaymentToken4-->PaymentTokenIdentifiers1 
AcceptorCompletionAdviceResponse7-->CardPaymentTransactionAdviceResponse6 
CardPaymentTransactionAdviceResponse6-->TransactionIdentifier1 
AcceptorCompletionAdviceResponse7-->TMSTrigger1 
AcceptorCompletionAdviceResponse7-->SupplementaryData1 
AccptrCmpltnAdvcRspn07-->ContentInformationType16 
ContentInformationType16-->AuthenticatedData5 
AuthenticatedData5-->Recipient6Choice 
AuthenticatedData5-->AlgorithmIdentification22 
AlgorithmIdentification22-->Parameter7 
AuthenticatedData5-->EncapsulatedContent3 

@enduml 