@startuml
object PostalAddress22 {
AddressType [0...1] : AddressType2Code
Department [0...1] : Max70Text
SubDepartment [0...1] : Max70Text
AddressLine [0...2] : Max70Text
StreetName [0...1] : Max70Text
BuildingNumber [0...1] : Max16Text
PostCode [0...1] : Max16Text
TownName [0...1] : Max70Text
CountrySubDivision [0...2] : Max35Text
CountryCode [0...1] : Min2Max3AlphaText
}
@enduml 