@startuml
object Product5 {
ProductCode [1...1] : Max70Text
AdditionalProductCode [0...1] : Max70Text
AmountLimit [0...1] : ImpliedCurrencyAndAmount
QuantityLimit [0...1] : DecimalNumber
UnitOfMeasure [0...1] : UnitOfMeasure6Code
}
@enduml 