@startuml
object SaleContext2 {
SaleIdentification [0...1] : Max35Text
SaleReferenceNumber [0...1] : Max35Text
SaleReconciliationIdentification [0...1] : Max35Text
CashierIdentification [0...1] : Max35Text
ShiftNumber [0...1] : Max2NumericText
PurchaseOrderNumber [0...1] : Max35Text
InvoiceNumber [0...1] : Max35Text
DeliveryNoteNumber [0...1] : Max35Text
SponsoredMerchant [0...*] : Organisation26
SplitPayment [0...1] : TrueFalseIndicator
RemainingAmount [0...1] : ImpliedCurrencyAndAmount
AdditionalSaleData [0...1] : Max70Text
}
@enduml 