@startuml
object Traceability5 {
RelayIdentification [1...1] : GenericIdentification76
ProtocolName [0...1] : Max35Text
ProtocolVersion [0...1] : Max6Text
TraceDateTimeIn [1...1] : ISODateTime
TraceDateTimeOut [1...1] : ISODateTime
}
@enduml 