@startuml
skinparam classBackgroundColor<<Codeset>> Azure 
enum MemoryUnit1Code <<Codeset>> {
EXAB : ExaByte
PETA : PetaByte
TERA : TeraByte
GIGA : GigaByte
MEGA : MegaByte
KILO : KiloByte
BYTE : Byte
}
@enduml 