@startuml
skinparam classBackgroundColor<<Codeset>> Azure 
enum AttributeType1Code <<Codeset>> {
CNAT : CommonName
LATT : Locality
OATT : OrganisationName
OUAT : OrganisationUnitName
CATT : CountryName
}
@enduml 