@startuml
skinparam classBackgroundColor<<Codeset>> Azure 
enum DataSetCategory13Code <<Codeset>> {
SWPK : SoftwareModule
APPR : ApplicationParameters
MRPR : MerchantParameters
TRPR : TerminalParameters
ACQP : AcquirerProtocolParameters
APSB : ApplicationParametersSubsetCreation
KDWL : KeyDownload
KMGT : KeyManagement
RPRT : Reporting
TMSP : TMSProtocolParameters
CRTF : CertificateParameters
SAPR : SaleToPOIProtocolParameters
SACP : SaleComponent
}
@enduml 