@startuml
skinparam classBackgroundColor<<Codeset>> Azure 
enum RejectReason2Code <<Codeset>> {
UNPR : UnableToProcess
IMSG : InvalidMessage
PARS : ParsingError
SECU : Security
INTP : InitiatingParty
RCPP : RecipientParty
VERS : ProtocolVersion
MSGT : MessageType
}
@enduml 