@startuml
skinparam classBackgroundColor<<Codeset>> Azure 
enum POIComponentType5Code <<Codeset>> {
EMVK : EMVKernel
EMVO : EMVLevel1
SECM : SecureModule
MRPR : MerchantParameters
AQPP : AcquirerProtocolParameters
APPR : ApplicationParameters
DVCE : Device
DRVR : Driver
MDWR : Middleware
OPST : OperatingSystem
APLI : PaymentApplication
SCPR : SecurityParameters
SERV : Server
TERM : Terminal
TLPR : TerminalParameters
CRTF : CertificateParameters
TMSP : TMSProtocolParameters
SAPR : SaleToPOIProtocolParameters
SACP : SaleComponent
}
@enduml 