@startuml
object HostCommunicationParameter5 {
ActionType [1...1] : TerminalManagementAction3Code
HostIdentification [1...1] : Max35Text
Address [0...1] : NetworkParameters5
Key [0...*] : KEKIdentifier5
NetworkServiceProvider [0...1] : NetworkParameters5
PhysIntrfc [0...1] : PhysicalInterfaceParameter1
}
@enduml 