@startuml
object KEK5 {
Version [0...1] : Number
KEKIdentification [1...1] : KEKIdentifier2
KeyEncryptionAlgorithm [1...1] : AlgorithmIdentification23
EncryptedKey [1...1] : Max500Binary
}
@enduml 