@startuml
object MaintenanceDelegationResponse3 {
TMIdentification [1...1] : GenericIdentification72
MasterTMIdentification [0...1] : GenericIdentification72
DelegationResponse [1...*] : MaintenanceDelegation6
}
@enduml 