@startuml
object MaintenanceDelegation6 {
MaintenanceService [1...*] : DataSetCategory11Code
Response [1...1] : Response2Code
ResponseReason [0...1] : Max35Text
DelegationType [1...1] : TerminalManagementAction3Code
POISubset [0...*] : Max35Text
DelegationScopeIdentification [0...1] : Max35Text
DelegationScopeDefinition [0...1] : Max3000Binary
DelegationProof [0...1] : Max5000Binary
ProtectedDelegationProof [0...1] : ContentInformationType19
POIIdentificationAssociation [0...*] : MaintenanceIdentificationAssociation1
}
@enduml 