@startuml
TITLE Management Plan Replacement V07\n %date% 
!include MgmtPlanRplcmnt07.pu
!include Header27.pu
!include GenericIdentification71.pu
!include GenericIdentification92.pu
!include NetworkParameters5.pu
!include NetworkParameters4.pu
!include ManagementPlan7.pu
!include GenericIdentification71.pu
!include GenericIdentification71.pu
!include TerminalManagementDataSet24.pu
!include DataSetIdentification7.pu
!include ManagementPlanContent7.pu
!include TMSAction7.pu
!include NetworkParameters5.pu
!include NetworkParameters4.pu
!include KEKIdentifier5.pu
!include GenericIdentification71.pu
!include DataSetIdentification7.pu
!include ContentInformationType19.pu
!include EnvelopedData5.pu
!include OriginatorInformation1.pu
!include Recipient6Choice.pu
!include KeyTransport5.pu
!include Recipient5Choice.pu
!include IssuerAndSerialNumber1.pu
!include CertificateIssuer1.pu
!include RelativeDistinguishedName1.pu
!include KEKIdentifier2.pu
!include AlgorithmIdentification19.pu
!include Parameter10.pu
!include AlgorithmIdentification18.pu
!include Parameter9.pu
!include KEK5.pu
!include KEKIdentifier2.pu
!include AlgorithmIdentification23.pu
!include Parameter12.pu
!include KEKIdentifier2.pu
!include EncryptedContent4.pu
!include AlgorithmIdentification24.pu
!include Parameter12.pu
!include AuthenticatedData5.pu
!include Recipient6Choice.pu
!include KeyTransport5.pu
!include Recipient5Choice.pu
!include IssuerAndSerialNumber1.pu
!include CertificateIssuer1.pu
!include RelativeDistinguishedName1.pu
!include KEKIdentifier2.pu
!include AlgorithmIdentification19.pu
!include Parameter10.pu
!include AlgorithmIdentification18.pu
!include Parameter9.pu
!include KEK5.pu
!include KEKIdentifier2.pu
!include AlgorithmIdentification23.pu
!include Parameter12.pu
!include KEKIdentifier2.pu
!include AlgorithmIdentification22.pu
!include Parameter7.pu
!include EncapsulatedContent3.pu
!include SignedData5.pu
!include AlgorithmIdentification21.pu
!include EncapsulatedContent3.pu
!include Signer4.pu
!include Recipient5Choice.pu
!include IssuerAndSerialNumber1.pu
!include CertificateIssuer1.pu
!include RelativeDistinguishedName1.pu
!include KEKIdentifier2.pu
!include AlgorithmIdentification21.pu
!include GenericInformation1.pu
!include AlgorithmIdentification20.pu
!include Parameter11.pu
!include AlgorithmIdentification12.pu
!include Parameter5.pu
!include DigestedData5.pu
!include AlgorithmIdentification21.pu
!include EncapsulatedContent3.pu
!include ProcessRetry2.pu
!include ProcessTiming3.pu
!include ErrorAction4.pu
!include MessageItemCondition1.pu
!include ContentInformationType18.pu
!include AuthenticatedData5.pu
!include Recipient6Choice.pu
!include KeyTransport5.pu
!include Recipient5Choice.pu
!include IssuerAndSerialNumber1.pu
!include CertificateIssuer1.pu
!include RelativeDistinguishedName1.pu
!include KEKIdentifier2.pu
!include AlgorithmIdentification19.pu
!include Parameter10.pu
!include AlgorithmIdentification18.pu
!include Parameter9.pu
!include KEK5.pu
!include KEKIdentifier2.pu
!include AlgorithmIdentification23.pu
!include Parameter12.pu
!include KEKIdentifier2.pu
!include AlgorithmIdentification22.pu
!include Parameter7.pu
!include EncapsulatedContent3.pu
!include SignedData5.pu
!include AlgorithmIdentification21.pu
!include EncapsulatedContent3.pu
!include Signer4.pu
!include Recipient5Choice.pu
!include IssuerAndSerialNumber1.pu
!include CertificateIssuer1.pu
!include RelativeDistinguishedName1.pu
!include KEKIdentifier2.pu
!include AlgorithmIdentification21.pu
!include GenericInformation1.pu
!include AlgorithmIdentification20.pu
!include Parameter11.pu
!include AlgorithmIdentification12.pu
!include Parameter5.pu
!include Enum_PartyType5Code.pu
!include Enum_PartyType6Code.pu
!include Enum_PartyType5Code.pu
!include Enum_PartyType6Code.pu
!include Enum_NetworkType1Code.pu
!include Enum_DataSetCategory12Code.pu
!include Enum_TerminalManagementAction4Code.pu
!include Enum_CryptographicKeyType3Code.pu
!include Enum_KeyUsage1Code.pu
!include Enum_DataSetCategory12Code.pu
!include Enum_ContentType2Code.pu
!include Enum_AttributeType1Code.pu
!include Enum_Algorithm7Code.pu
!include Enum_EncryptionFormat2Code.pu
!include Enum_Algorithm16Code.pu
!include Enum_Algorithm8Code.pu
!include Enum_Algorithm16Code.pu
!include Enum_Algorithm18Code.pu
!include Enum_EncryptionFormat2Code.pu
!include Enum_BytePadding1Code.pu
!include Enum_ContentType2Code.pu
!include Enum_Algorithm18Code.pu
!include Enum_Algorithm17Code.pu
!include Enum_BytePadding1Code.pu
!include Enum_ContentType2Code.pu
!include Enum_Algorithm16Code.pu
!include Enum_Algorithm19Code.pu
!include Enum_Algorithm16Code.pu
!include Enum_Algorithm8Code.pu
!include Enum_Algorithm11Code.pu
!include Enum_TerminalManagementActionTrigger1Code.pu
!include Enum_TerminalManagementAdditionalProcess1Code.pu
!include Enum_TerminalManagementActionResult4Code.pu
!include Enum_TerminalManagementErrorAction2Code.pu
!include Enum_MessageItemCondition1Code.pu
!include Enum_ContentType2Code.pu

MgmtPlanRplcmnt07-->Header27 
Header27-->GenericIdentification71 
Header27-->GenericIdentification92 
GenericIdentification92-->NetworkParameters5 
NetworkParameters5-->NetworkParameters4 
MgmtPlanRplcmnt07-->ManagementPlan7 
ManagementPlan7-->GenericIdentification71 
ManagementPlan7-->TerminalManagementDataSet24 
TerminalManagementDataSet24-->DataSetIdentification7 
TerminalManagementDataSet24-->ManagementPlanContent7 
ManagementPlanContent7-->TMSAction7 
TMSAction7-->NetworkParameters5 
TMSAction7-->KEKIdentifier5 
TMSAction7-->GenericIdentification71 
TMSAction7-->DataSetIdentification7 
TMSAction7-->ContentInformationType19 
ContentInformationType19-->EnvelopedData5 
EnvelopedData5-->OriginatorInformation1 
EnvelopedData5-->Recipient6Choice 
Recipient6Choice-->KeyTransport5 
KeyTransport5-->Recipient5Choice 
Recipient5Choice-->IssuerAndSerialNumber1 
IssuerAndSerialNumber1-->CertificateIssuer1 
CertificateIssuer1-->RelativeDistinguishedName1 
Recipient5Choice-->KEKIdentifier2 
KeyTransport5-->AlgorithmIdentification19 
AlgorithmIdentification19-->Parameter10 
Parameter10-->AlgorithmIdentification18 
AlgorithmIdentification18-->Parameter9 
Recipient6Choice-->KEK5 
KEK5-->KEKIdentifier2 
KEK5-->AlgorithmIdentification23 
AlgorithmIdentification23-->Parameter12 
Recipient6Choice-->KEKIdentifier2 
EnvelopedData5-->EncryptedContent4 
EncryptedContent4-->AlgorithmIdentification24 
AlgorithmIdentification24-->Parameter12 
ContentInformationType19-->AuthenticatedData5 
AuthenticatedData5-->Recipient6Choice 
AuthenticatedData5-->AlgorithmIdentification22 
AlgorithmIdentification22-->Parameter7 
AuthenticatedData5-->EncapsulatedContent3 
ContentInformationType19-->SignedData5 
SignedData5-->AlgorithmIdentification21 
SignedData5-->EncapsulatedContent3 
SignedData5-->Signer4 
Signer4-->Recipient5Choice 
Signer4-->AlgorithmIdentification21 
Signer4-->GenericInformation1 
Signer4-->AlgorithmIdentification20 
AlgorithmIdentification20-->Parameter11 
Parameter11-->AlgorithmIdentification12 
AlgorithmIdentification12-->Parameter5 
ContentInformationType19-->DigestedData5 
DigestedData5-->AlgorithmIdentification21 
DigestedData5-->EncapsulatedContent3 
TMSAction7-->ProcessRetry2 
TMSAction7-->ProcessTiming3 
TMSAction7-->ErrorAction4 
TMSAction7-->MessageItemCondition1 
MgmtPlanRplcmnt07-->ContentInformationType18 
ContentInformationType18-->AuthenticatedData5 
ContentInformationType18-->SignedData5 
GenericIdentification71-->PartyType5Code 
GenericIdentification71-->PartyType6Code 
GenericIdentification92-->PartyType5Code 
GenericIdentification92-->PartyType6Code 
NetworkParameters4-->NetworkType1Code 
DataSetIdentification7-->DataSetCategory12Code 
TMSAction7-->TerminalManagementAction4Code 
KEKIdentifier5-->CryptographicKeyType3Code 
KEKIdentifier5-->KeyUsage1Code 
TMSAction7-->DataSetCategory12Code 
ContentInformationType19-->ContentType2Code 
RelativeDistinguishedName1-->AttributeType1Code 
AlgorithmIdentification19-->Algorithm7Code 
Parameter10-->EncryptionFormat2Code 
Parameter10-->Algorithm16Code 
AlgorithmIdentification18-->Algorithm8Code 
Parameter9-->Algorithm16Code 
AlgorithmIdentification23-->Algorithm18Code 
Parameter12-->EncryptionFormat2Code 
Parameter12-->BytePadding1Code 
EncryptedContent4-->ContentType2Code 
AlgorithmIdentification24-->Algorithm18Code 
AlgorithmIdentification22-->Algorithm17Code 
Parameter7-->BytePadding1Code 
EncapsulatedContent3-->ContentType2Code 
AlgorithmIdentification21-->Algorithm16Code 
AlgorithmIdentification20-->Algorithm19Code 
Parameter11-->Algorithm16Code 
AlgorithmIdentification12-->Algorithm8Code 
Parameter5-->Algorithm11Code 
TMSAction7-->TerminalManagementActionTrigger1Code 
TMSAction7-->TerminalManagementAdditionalProcess1Code 
ErrorAction4-->TerminalManagementActionResult4Code 
ErrorAction4-->TerminalManagementErrorAction2Code 
MessageItemCondition1-->MessageItemCondition1Code 
ContentInformationType18-->ContentType2Code 

@enduml 