@startuml
object PointOfInteractionComponentCharacteristics4 {
Memory [0...*] : MemoryCharacteristics1
Communication [0...*] : CommunicationCharacteristics3
SecurityAccessModules [0...1] : Number
SubscriberIdentityModules [0...1] : Number
SecurityElement [0...*] : CryptographicKey13
}
@enduml 