@startuml
object ProcessTiming3 {
WaitingTime [0...1] : Max9NumericText
StartTime [0...1] : ISODateTime
EndTime [0...1] : ISODateTime
Period [0...1] : Max9NumericText
MaximumNumber [0...1] : Number
}
@enduml 