@startuml
object SecurityParameters11 {
ActionType [1...1] : TerminalManagementAction3Code
Version [1...1] : Max256Text
POIChallenge [0...1] : Max140Binary
TMChallenge [0...1] : Max140Binary
SecurityElement [0...*] : CryptographicKey13
}
@enduml 