@startuml
object TerminalManagementDataSet23 {
Identification [1...1] : DataSetIdentification7
SequenceCounter [0...1] : Max9NumericText
POIIdentification [0...*] : GenericIdentification71
ConfigurationScope [0...1] : PartyType15Code
Content [1...1] : AcceptorConfigurationContent7
}
@enduml 